%YAML 1.1
%TAG !u! tag:unity3d.com,2011:
--- !u!1045 &1
EditorBuildSettings:
  m_ObjectHideFlags: 0
  serializedVersion: 2
  m_Scenes:
  - enabled: 1
    path: Assets/Scenes/MainMenu.unity
    guid: 21bda9cd2685173448c9d1fe3dcf6e3d
  - enabled: 1
    path: Assets/Scenes/CosmosScene.unity
    guid: ef305ec53843b174799e56e6e5cd3445
  - enabled: 1
    path: Assets/Scenes/FirstPlanetScene.unity
    guid: 94cc8325e7b2d9e43b9840275bf22b03
  - enabled: 1
    path: Assets/Scenes/Ending_summary.unity
    guid: c52613b9d785a2e40990d85e6e46e301
  m_configObjects: {}
