%YAML 1.1
%TAG !u! tag:unity3d.com,2011:
--- !u!1001 &5550618877968783578
PrefabInstance:
  m_ObjectHideFlags: 0
  serializedVersion: 2
  m_Modification:
    m_TransformParent: {fileID: 0}
    m_Modifications:
    - target: {fileID: -8679921383154817045, guid: 5c6a4db132deb5144b8591e906594f94, type: 3}
      propertyPath: m_LocalPosition.x
      value: -109.28113
      objectReference: {fileID: 0}
    - target: {fileID: -8679921383154817045, guid: 5c6a4db132deb5144b8591e906594f94, type: 3}
      propertyPath: m_LocalPosition.y
      value: 71
      objectReference: {fileID: 0}
    - target: {fileID: -8679921383154817045, guid: 5c6a4db132deb5144b8591e906594f94, type: 3}
      propertyPath: m_LocalPosition.z
      value: 727.0562
      objectReference: {fileID: 0}
    - target: {fileID: -8679921383154817045, guid: 5c6a4db132deb5144b8591e906594f94, type: 3}
      propertyPath: m_LocalRotation.x
      value: -0
      objectReference: {fileID: 0}
    - target: {fileID: -8679921383154817045, guid: 5c6a4db132deb5144b8591e906594f94, type: 3}
      propertyPath: m_LocalRotation.y
      value: 0.9929024
      objectReference: {fileID: 0}
    - target: {fileID: -8679921383154817045, guid: 5c6a4db132deb5144b8591e906594f94, type: 3}
      propertyPath: m_LocalRotation.z
      value: -0
      objectReference: {fileID: 0}
    - target: {fileID: -8679921383154817045, guid: 5c6a4db132deb5144b8591e906594f94, type: 3}
      propertyPath: m_LocalRotation.w
      value: 0.11893223
      objectReference: {fileID: 0}
    - target: {fileID: -8679921383154817045, guid: 5c6a4db132deb5144b8591e906594f94, type: 3}
      propertyPath: m_RootOrder
      value: 0
      objectReference: {fileID: 0}
    - target: {fileID: -8679921383154817045, guid: 5c6a4db132deb5144b8591e906594f94, type: 3}
      propertyPath: m_LocalEulerAnglesHint.x
      value: 0
      objectReference: {fileID: 0}
    - target: {fileID: -8679921383154817045, guid: 5c6a4db132deb5144b8591e906594f94, type: 3}
      propertyPath: m_LocalEulerAnglesHint.y
      value: 166.339
      objectReference: {fileID: 0}
    - target: {fileID: -8679921383154817045, guid: 5c6a4db132deb5144b8591e906594f94, type: 3}
      propertyPath: m_LocalEulerAnglesHint.z
      value: 0
      objectReference: {fileID: 0}
    - target: {fileID: 919132149155446097, guid: 5c6a4db132deb5144b8591e906594f94, type: 3}
      propertyPath: m_Name
      value: PlanetSaturnv1Textured
      objectReference: {fileID: 0}
    - target: {fileID: 4117877210652659062, guid: 5c6a4db132deb5144b8591e906594f94, type: 3}
      propertyPath: m_Materials.Array.data[0]
      value: 
      objectReference: {fileID: 2100000, guid: 7f8c698f9d896304888fcd7be5440ac6, type: 2}
    - target: {fileID: 7202271454713460447, guid: 5c6a4db132deb5144b8591e906594f94, type: 3}
      propertyPath: m_Materials.Array.data[0]
      value: 
      objectReference: {fileID: 2100000, guid: 200a02141c43de14cba250db96872189, type: 2}
    m_RemovedComponents: []
  m_SourcePrefab: {fileID: 100100000, guid: 5c6a4db132deb5144b8591e906594f94, type: 3}
